@startuml
	abstract class Objet {
		+ {abstract} operation()
	}

	class ObjetSimple {
		+ operation()
	}

	class ObjetComposite {
		+ operation()
		+ ajouter(objet : Objet)
		+ retirer(objet : Objet)
	}

	Objet <|-- ObjetSimple
	Objet <|-- ObjetComposite
	ObjetComposite *-- Objet
@enduml