@startuml

class Contexte

abstract class Expression {
  + {abstract} interpréter(Context)
}

class ExpressionTerminale {
  + interpréter(Context)
}

class ExpressionNonTerminale {
  + interpréter(Context)
}

Expression <|-- ExpressionTerminale
Expression <|-- ExpressionNonTerminale
ExpressionNonTerminale *-- Expression

@enduml