@startuml
	interface FabriqueAbstraite {
		+ createClasseA(...) : ClasseA
		+ createClasseB(...) : ClasseB
	}

	class Fabrique1 {
	}

	class Fabrique2 {
	}

	interface ClasseA
	interface ClasseB

	class ClasseA1
	class ClasseA2
	class ClasseB1
	class ClasseB2


	FabriqueAbstraite <|.. Fabrique1
	FabriqueAbstraite <|.. Fabrique2

	ClasseA <|.. ClasseA1
	ClasseA <|.. ClasseA2

	ClasseB <|.. ClasseB1
	ClasseB <|.. ClasseB2

	Fabrique1 ..> ClasseA1 : instancie
	Fabrique2 ..> ClasseA2 : instancie
	Fabrique1 ..> ClasseB1 : instancie
	Fabrique2 ..> ClasseB2 : instancie
@enduml