@startuml Strategy

class Player {
  + play(Strategy)
}

interface Strategy {
  + advance()
}

class Strategy1 {
  + advance()
}

class Strategy2 {
  + advance()
}

Player ... Strategy : "use"
Strategy <|-- Strategy1
Strategy <|-- Strategy2

@enduml