@startuml

interface InterfaceObjet {
	+ fonctionA(...)
	+ fonctionB(...)
}

class Proxy {
	+ fonctionA(...)
	+ fonctionB(...)
}

class Objet {
	+ fonctionA(...)
	+ fonctionB(...)
}

InterfaceObjet <|.. Proxy
InterfaceObjet <|.. Objet
Proxy ..> Objet : delegue a
@enduml